Chapter 7 Analysis example | stana
…
#> 
#>     ident, sql
bfc <- BiocFileCache()
url <- bfcrpath(bfc,"https://rest.kegg.jp/list/ko")
readr::read_delim(url, col_names = FALSE) %>%
    mutate(X1=paste0("ko:",X1)) %>%
    filter(X1 %in% conf)
#> Rows: 26323 Columns: 2
#> ── Column specification ────────────────────────────────────
#> Delimiter: "\t"
#> chr (2): X1, X2
#> 
#> ℹ Use `spec()` to retrieve the full column specification for this data.
#> ℹ Specify the column types or set `show_col_types = FALSE` to quiet this message.
#> # A tibble: 69 × 2
#>    X1        X2                                             
#>    <chr>     <chr>                                          
#>  1 ko:K00005 gldA; glycerol dehydrogenase [EC:1.1.1.6]      
#>  2 ko:K00008 SORD, gutB; L-iditol 2-dehydrogenase [EC:1.1.1…
#>  3 ko:K00390 cysH; phosphoadenosine phosphosulfate reductas…
#>  4 ko:K00433 cpo; non-heme chloroperoxidase [EC:1.11.1.10]  
#>  5 ko:K00632 fadA, fadI; acetyl-CoA acyltransferase [EC:2.3…
#>  6 ko:K00981 E2.7.7.41, CDS1, CDS2, cdsA; phosphatidate cyt…
#>  7 ko:K01182 IMA, malL; oligo-1,6-glucosidase [EC:3.2.1.10] 
#>  8 ko:K01226 treC; trehalose-6-phosphate hydrolase [EC:3.2.…
#>  9 ko:K01267 DNPEP; aspartyl aminopeptidase [EC:3.4.11.21]  
#> 10 ko:K01439 dapE; succinyl-diaminopimelate desuccinylase […
#> # ℹ 59 more rows
…
