Chapter 4 Functional annotation | stana
…
Use checkEGGNOG function to read the output of eggNOG-mapper v2. Specify IDs you want to obtain to ret, such as “KEGG_ko” and “KEGG_Pathway”.

tib <- checkEGGNOG("../annotations_gtdb/100224_eggnog_out.emapper.annotations",
    ret="KEGG_ko")
tib |> head() |> DT::datatable()

4.2.1 Draw the network

You can draw the relationships between IDs by drawEGGNOG.

drawEGGNOG("../annotations_gtdb/100224_eggnog_out.emapper.annotations",
            candPlot = c("KEGG_ko","KEGG_Pathway"),
            geneIDs = tib$ID |> head(100))
#> # A tibble: 4,287 × 3
#>    ID                    name          value                
#>    <chr>                 <chr>         <chr>                
#>  1 GCF_002846775.1_00408 seed_ortholog 1690.BPSG_1412       
#>  2 GCF_002846775.1_00408 eggNOG_OGs    COG0304@1|root       
#>  3 GCF_002846775.1_00408 eggNOG_OGs    COG0331@1|root       
#>  4 GCF_002846775.1_00408 eggNOG_OGs    COG2030@1|root       
#>  5 GCF_002846775.1_00408 eggNOG_OGs    COG4981@1|root       
#>  6 GCF_002846775.1_00408 eggNOG_OGs    COG0304@2|Bacteria   
#>  7 GCF_002846775.1_00408 eggNOG_OGs    COG0331@2|Bacteria   
#>  8 GCF_002846775.1_00408 eggNOG_OGs    COG2030@2|Bacteria   
#>  9 GCF_002846775.1_00408 eggNOG_OGs    COG4981@2|Bacteria   
#> 10 GCF_002846775.1_00408 eggNOG_OGs    2GIY4@201174|Actinob…
#> # ℹ 4,277 more rows
…
