…
## Integrating matrix to `tbl_graph`

If you want to reflect an expression matrix in a graph, the `append_edge_value` and `append_node_value` functions can be useful. By specifying a matrix and gene IDs, you can assign numeric values for each sample to the `tbl_graph`. `append_edge_value` assigns the sum of the two nodes connected by an edge, ignoring group nodes ([Adnan et al. 2020](
https://doi.org/10.1186/s12859-020-03692-2)).


```r
mat <- assay(vst(res))
new_g <- g |> edge_matrix(mat) |> node_matrix(mat)
new_g
#> # A tbl_graph: 134 nodes and 157 edges
#> #
#> # A directed acyclic multigraph with 40 components
#> #
#> # A tibble: 134 × 47
#>   name        type  reaction graphics_name     x     y width
#>   <chr>       <chr> <chr>    <chr>         <dbl> <dbl> <dbl>
#> 1 hsa:1029    gene  <NA>     CDKN2A, ARF,…   532  -218    46
#> 2 hsa:51343   gene  <NA>     FZR1, CDC20C…   981  -630    46
#> 3 hsa:4171 h… gene  <NA>     MCM2, BM28, …   553  -681    46
#> 4 hsa:23594 … gene  <NA>     ORC6, ORC6L.…   494  -681    46
#> 5 hsa:10393 … gene  <NA>     ANAPC10, APC…   981  -392    46
#> 6 hsa:10393 … gene  <NA>     ANAPC10, APC…   981  -613    46
#> # ℹ 128 more rows
#> # ℹ 40 more variables: height <dbl>, fgcolor <chr>,
#> #   bgcolor <chr>, graphics_type <chr>, coords <chr>,
#> #   xmin <dbl>, xmax <dbl>, ymin <dbl>, ymax <dbl>,
#> #   orig.id <chr>, pathway_id <chr>, deseq2 <dbl>,
#> #   padj <dbl>, converted_name <chr>, SRR14509882 <dbl>,
#> #   SRR14509883 <dbl>, SRR14509884 <dbl>, …
#> #
#> # A tibble: 157 × 32
#>    from    to type  subtype        from_nd to_nd SRR14509882
#>   <int> <int> <chr> <chr>          <chr>   <chr>       <dbl>
#> 1   118    39 GErel expression     undefi… hsa:…        NA  
#> 2    50    61 PPrel inhibition     hsa:29… hsa:…        24.4
#> 3    50    61 PPrel phosphorylati… hsa:29… hsa:…        24.4
#> # ℹ 154 more rows
#> # ℹ 25 more variables: SRR14509883 <dbl>,
#> #   SRR14509884 <dbl>, SRR14509885 <dbl>,
#> #   SRR14509886 <dbl>, SRR14509887 <dbl>,
#> #   SRR14509888 <dbl>, SRR14509889 <dbl>,
#> #   SRR14509890 <dbl>, SRR14509891 <dbl>,
#> #   SRR14509892 <dbl>, SRR14509893 <dbl>, …
```
…
