Chapter 4 Network | ggkegg
…
#> # A tbl_graph: 6 nodes and 5 edges
#> #
#> # A rooted tree
#> #
#> # A tibble: 6 × 3
#>   name     network_name                          network_ID
#>   <chr>    <chr>                                 <chr>     
#> 1 E5       HPV E5 to EGFR-PI3K signaling pathway N00366    
#> 2 V-ATPase HPV E5 to EGFR-PI3K signaling pathway N00366    
#> 3 EGFR     HPV E5 to EGFR-PI3K signaling pathway N00366    
#> 4 PI3K     HPV E5 to EGFR-PI3K signaling pathway N00366    
#> 5 PIP3     HPV E5 to EGFR-PI3K signaling pathway N00366    
#> 6 AKT      HPV E5 to EGFR-PI3K signaling pathway N00366    
#> #
#> # A tibble: 5 × 4
#>    from    to type  subtype  
#>   <int> <int> <chr> <chr>    
#> 1     1     2 -|    reference
#> 2     2     3 -|    reference
#> 3     3     4 ->    reference
#> # ℹ 2 more rows
…
